<?xml version="1.0" encoding="UTF-8"?>
<!DOCTYPE svg PUBLIC "-//W3C//DTD SVG 1.1//EN" "http://www.w3.org/Graphics/SVG/1.1/DTD/svg11.dtd">
<!-- Creator: CorelDRAW 2018 (64 Bit) -->
<svg xmlns="http://www.w3.org/2000/svg" xml:space="preserve" width="60px" height="48px" version="1.1" style="shape-rendering:geometricPrecision; text-rendering:geometricPrecision; image-rendering:optimizeQuality; fill-rule:evenodd; clip-rule:evenodd"
viewBox="0 0 0.051 0.037"
 xmlns:xlink="http://www.w3.org/1999/xlink">
 <defs>
  <style type="text/css">
   <![CDATA[
    .fil0 {fill:#999999}
   ]]>
  </style>
 </defs>
 <g id="Camada_x0020_1">
  <metadata id="CorelCorpID_0Corel-Layer"/>
  <path class="fil0" d="M0.006 0l0.039 0c0.003,0 0.006,0.003 0.006,0.006l0 0.025c0,0.004 -0.003,0.006 -0.006,0.006l-0.039 0c-0.003,0 -0.006,-0.002 -0.006,-0.006l0 -0.025c0,-0.003 0.003,-0.006 0.006,-0.006zm0.043 0.03c0,0 0,0.001 0,0.001l-0.012 -0.011 0.012 -0.011 0 0.021zm-0.013 -0.008l0.011 0.012c-0.001,0.001 -0.002,0.001 -0.004,0.001l-0.035 0c-0.002,0 -0.003,0 -0.004,-0.001l0.011 -0.012 0.004 0.003 0 0c0.001,0.002 0.004,0.003 0.007,0.003 0.002,0 0.005,-0.001 0.006,-0.003l0 0 0.004 -0.003zm-0.022 -0.002l-0.012 0.011c0,0 0,-0.001 0,-0.001l0 -0.021 0.012 0.011zm-0.011 -0.014c0,-0.003 0.002,-0.004 0.005,-0.004l0.035 0c0.003,0 0.005,0.001 0.005,0.004l-0.017 0.017 0 0c-0.002,0.002 -0.004,0.003 -0.005,0.003 -0.002,0 -0.004,-0.001 -0.006,-0.003l0 0 -0.017 -0.017z"/>
 </g>
</svg>
