<?xml version="1.0" encoding="UTF-8"?>
<!DOCTYPE svg PUBLIC "-//W3C//DTD SVG 1.1//EN" "http://www.w3.org/Graphics/SVG/1.1/DTD/svg11.dtd">
<!-- Creator: CorelDRAW 2018 (64 Bit) -->
<svg xmlns="http://www.w3.org/2000/svg" xml:space="preserve" width="48px" height="48px" version="1.1" style="shape-rendering:geometricPrecision; text-rendering:geometricPrecision; image-rendering:optimizeQuality; fill-rule:evenodd; clip-rule:evenodd"
viewBox="0 0 6.66 6.66"
 xmlns:xlink="http://www.w3.org/1999/xlink">
 <defs>
  <style type="text/css">
   <![CDATA[
    .fil0 {fill:#999999}
   ]]>
  </style>
 </defs>
 <g id="Camada_x0020_1">
  <metadata id="CorelCorpID_0Corel-Layer"/>
  <path class="fil0" d="M4.75 5.99l0 0 -0.99 0 0 -2.4 -0.5 0 0 -0.83 0.5 0 0 -0.5c0,-0.67 0.28,-1.07 1.07,-1.07l0.66 0 0 0.83 -0.41 0c-0.31,0 -0.33,0.11 -0.33,0.33l0 0.41 0.75 0 -0.09 0.83 -0.66 0 0 2.4zm-3.73 -5.99l4.62 0c0.56,0 1.02,0.46 1.02,1.02l0 4.62c0,0.56 -0.46,1.02 -1.02,1.02l-4.62 0c-0.56,0 -1.02,-0.46 -1.02,-1.02l0 -4.62c0,-0.56 0.46,-1.02 1.02,-1.02zm0 0.25l4.62 0c0.42,0 0.77,0.34 0.77,0.77l0 4.62c0,0.42 -0.35,0.77 -0.77,0.77l-4.62 0c-0.43,0 -0.77,-0.35 -0.77,-0.77l0 -4.62c0,-0.43 0.34,-0.77 0.77,-0.77z"/>
 </g>
</svg>
